METHOD convert(paramaters c,  st,  i)
BEGIN
CREATE s;
SWITCH c
  CASE 'a': s = "4";
  BREAK
  CASE 'b': s = "B";
  BREAK
  CASE 'c': s = "(";
  BREAK
  CASE 'd': s = "D";
  BREAK
  CASE 'e': s = "3";
  BREAK
  CASE 'f': s = "Ph";
  BREAK
  CASE 'g': s = "9";
  BREAK
  CASE 'h': s = "|-|";
  BREAK
  CASE 'i': s= "1";
  BREAK
  CASE 'j': s = "j";
  BREAK
  CASE 'k': s = "|<";
  BREAK
  CASE 'l': s = "L";
  BREAK
  CASE 'm': s="/\\\\/\\\\";
  BREAK
  CASE 'n': s= "|\\\\|";
  BREAK
  CASE 'o': s = "0";
  BREAK
  CASE 'p': s = "P";
  BREAK
  CASE 'q': s = "Q";
  BREAK
  CASE 'r': s = "R";
  BREAK
  CASE 's': s = "$";
  BREAK
  CASE 't': s = "7";
  BREAK
  CASE 'u': s= "U";
  BREAK
  CASE 'v': s= "\\V";
  BREAK
  CASE 'w': s = "\\V\\V";
  BREAK
  CASE 'x': s = "><";
  BREAK
  CASE 'y': s= "'/";
  BREAK
  CASE 'z': s="Z";
  BREAK
  CASE ' ': s=" ";
  BREAK
END SWITCH
st.erase(i);
st = st.insert(i, s);


return(s);
END convert

BEGIN MAIN
CREATE s, st;
PRINT "Enter a string: ";
READ s;

FOR i = 0 TO s.length() BY 1
  st += convert(s[i],s,i);
END FOR
PRINT st;
END MAIN
